%YAML 1.1
%TAG !u! tag:unity3d.com,2011:
--- !u!114 &11400000
MonoBehaviour:
  m_ObjectHideFlags: 0
  m_CorrespondingSourceObject: {fileID: 0}
  m_PrefabInstance: {fileID: 0}
  m_PrefabAsset: {fileID: 0}
  m_GameObject: {fileID: 0}
  m_Enabled: 1
  m_EditorHideFlags: 0
  m_Script: {fileID: 11500000, guid: 1bb1838fe8befb0429646b938e757ff3, type: 3}
  m_Name: German (Switzerland) (de-CH)
  m_EditorClassIdentifier: 
  m_Identifier:
    m_Code: de-CH
  m_Metadata:
    m_Items: []
  m_LocaleName: German (Switzerland) (de-CH)
  m_CustomFormatCultureCode: 
  m_UseCustomFormatter: 0
  m_SortOrder: 10000
  references:
    version: 1
