%YAML 1.1
%TAG !u! tag:unity3d.com,2011:
--- !u!114 &11400000
MonoBehaviour:
  m_ObjectHideFlags: 0
  m_CorrespondingSourceObject: {fileID: 0}
  m_PrefabInstance: {fileID: 0}
  m_PrefabAsset: {fileID: 0}
  m_GameObject: {fileID: 0}
  m_Enabled: 1
  m_EditorHideFlags: 0
  m_Script: {fileID: 11500000, guid: e9620f8c34305754d8cc9a7e49e852d9, type: 3}
  m_Name: Inventory_en-GB
  m_EditorClassIdentifier: 
  m_LocaleId:
    m_Code: en-GB
  m_SharedData: {fileID: 11400000, guid: 95b1311df48a94c78abe0112e2a001ac, type: 2}
  m_Metadata:
    m_Items: []
  m_TableData:
  - m_Id: 10183488036864
    m_Localized: Combat Backpack 90
    m_Metadata:
      m_Items: []
  - m_Id: 451577172189184
    m_Localized: Backpack 04
    m_Metadata:
      m_Items: []
  - m_Id: 451730406891520
    m_Localized: Transport Trolley 04
    m_Metadata:
      m_Items: []
  - m_Id: 452274382954496
    m_Localized: Effect bag 04
    m_Metadata:
      m_Items: []
  - m_Id: 452372861018112
    m_Localized: Ceinture utilitaire 90
    m_Metadata:
      m_Items: []
  - m_Id: 728561899003904
    m_Localized: Bandage 90
    m_Metadata:
      m_Items: []
  - m_Id: 731212539748352
    m_Localized: Marschbefehl (MB)_EN
    m_Metadata:
      m_Items: []
  - m_Id: 731421969735680
    m_Localized: Emergency numbers
    m_Metadata:
      m_Items: []
  - m_Id: 731608314273792
    m_Localized: Can heal you.
    m_Metadata:
      m_Items: []
  - m_Id: 731691344715776
    m_Localized: Deployment order, public transport ticket and identity document.
    m_Metadata:
      m_Items: []
  - m_Id: 731721728253952
    m_Localized: Die wichtigsten Notfallnummern der Kompanie._EN
    m_Metadata:
      m_Items: []
  - m_Id: 734075403886592
    m_Localized: For missions in the field.
    m_Metadata:
      m_Items: []
  - m_Id: 734618062938112
    m_Localized: Stuff for during the battle.
    m_Metadata:
      m_Items: []
  - m_Id: 736395994849280
    m_Localized: A small backpack.
    m_Metadata:
      m_Items: []
  - m_Id: 736593043251200
    m_Localized: Big bag to fit in your civil stuff.
    m_Metadata:
      m_Items: []
  - m_Id: 736949609422848
    m_Localized: Loads of storage. Can also be used as vehicle.
    m_Metadata:
      m_Items: []
  references:
    version: 1
