%YAML 1.1
%TAG !u! tag:unity3d.com,2011:
--- !u!1045 &1
EditorBuildSettings:
  m_ObjectHideFlags: 0
  serializedVersion: 2
  m_Scenes:
  - enabled: 0
    path: Assets/3rdPerson+Fly(Mobile)/Scenes/3rdPerson+Fly.unity
    guid: edce6a3cd6b78e7459bd2864b9295f8c
  - enabled: 0
    path: Assets/3rdPerson+Fly(Mobile)/Scenes/3rdPerson+Fly(touchscreen-cam).unity
    guid: 82c8bafeb6f17a44c9197ab4cb088adc
  - enabled: 0
    path: Assets/Scenes/Airolo.unity
    guid: 90ecd155be6e64a80b052c1423812db8
  - enabled: 0
    path: Assets/MilitaryBaseKit/ForwardMilBaseKit/DemoScene.unity
    guid: b1f5e93cdf7055248a6f65f042949018
  - enabled: 1
    path: Assets/Scenes/Prototype.unity
    guid: 65ff6a048ae4849af91005c7f7d438b3
  m_configObjects:
    com.unity.addressableassets: {fileID: 11400000, guid: 03df712036fee4ee793da125bec762f8,
      type: 2}
    com.unity.localization.settings: {fileID: 11400000, guid: 4e10786a6138841d181da09086137e4a,
      type: 2}
