%YAML 1.1
%TAG !u! tag:unity3d.com,2011:
--- !u!114 &11400000
MonoBehaviour:
  m_ObjectHideFlags: 0
  m_CorrespondingSourceObject: {fileID: 0}
  m_PrefabInstance: {fileID: 0}
  m_PrefabAsset: {fileID: 0}
  m_GameObject: {fileID: 0}
  m_Enabled: 1
  m_EditorHideFlags: 0
  m_Script: {fileID: 11500000, guid: 468a46d0ae32c3544b7d98094e6448a9, type: 3}
  m_Name: AddressableAssetSettings
  m_EditorClassIdentifier: 
  m_DefaultGroup: b10694f8815474f7ca16c545941646c8
  m_OptimizeCatalogSize: 0
  m_BuildRemoteCatalog: 0
  m_BundleLocalCatalog: 0
  m_CatalogRequestsTimeout: 0
  m_DisableCatalogUpdateOnStart: 0
  m_IgnoreUnsupportedFilesInBuild: 0
  m_UniqueBundleIds: 0
  m_NonRecursiveBuilding: 0
  m_maxConcurrentWebRequests: 500
  m_ContiguousBundles: 0
  m_ShaderBundleNaming: 0
  m_ShaderBundleCustomNaming: 
  m_MonoScriptBundleNaming: 0
  m_MonoScriptBundleCustomNaming: 
  m_RemoteCatalogBuildPath:
    m_Id: 
  m_RemoteCatalogLoadPath:
    m_Id: 
  m_ContentStateBuildPath: 
  m_overridePlayerVersion: 
  m_GroupAssets:
  - {fileID: 11400000, guid: 17457a7b426a947469846636ad46d310, type: 2}
  - {fileID: 11400000, guid: 921954f7933354c77a72120e723a031e, type: 2}
  - {fileID: 11400000, guid: 7f43c1e1226314560b9751df8e89dcc1, type: 2}
  - {fileID: 11400000, guid: a0416ea7767d04618a8ad57f7b897158, type: 2}
  - {fileID: 11400000, guid: 81efc285a466f4c01b5eca0c43701744, type: 2}
  - {fileID: 11400000, guid: 1084badd1b0a9443f82eb259dccc89b3, type: 2}
  - {fileID: 11400000, guid: 329c997749cc347249a9e3f67ac2fefb, type: 2}
  m_BuildSettings:
    m_CompileScriptsInVirtualMode: 0
    m_CleanupStreamingAssetsAfterBuilds: 1
    m_LogResourceManagerExceptions: 1
    m_BundleBuildPath: Temp/com.unity.addressables/AssetBundles
  m_ProfileSettings:
    m_Profiles:
    - m_InheritedParent: 
      m_Id: caccf6d221b9047a698e1e502f53c40d
      m_ProfileName: Default
      m_Values:
      - m_Id: 6440c70e461f940bd8ff660eebde48d1
        m_Value: '[UnityEditor.EditorUserBuildSettings.activeBuildTarget]'
      - m_Id: 2205d63972e4c4091860794ce10664cc
        m_Value: '[UnityEngine.AddressableAssets.Addressables.BuildPath]/[BuildTarget]'
      - m_Id: b8894202c250340d98794b74b13a0212
        m_Value: '{UnityEngine.AddressableAssets.Addressables.RuntimePath}/[BuildTarget]'
      - m_Id: 0e9a55dd579d54607bcc91ac2e0c5619
        m_Value: ServerData/[BuildTarget]
      - m_Id: 2881caa99e743481ab703b92ef870054
        m_Value: http://localhost/[BuildTarget]
    m_ProfileEntryNames:
    - m_Id: 6440c70e461f940bd8ff660eebde48d1
      m_Name: BuildTarget
      m_InlineUsage: 0
    - m_Id: 2205d63972e4c4091860794ce10664cc
      m_Name: LocalBuildPath
      m_InlineUsage: 0
    - m_Id: b8894202c250340d98794b74b13a0212
      m_Name: LocalLoadPath
      m_InlineUsage: 0
    - m_Id: 0e9a55dd579d54607bcc91ac2e0c5619
      m_Name: RemoteBuildPath
      m_InlineUsage: 0
    - m_Id: 2881caa99e743481ab703b92ef870054
      m_Name: RemoteLoadPath
      m_InlineUsage: 0
    m_ProfileVersion: 1
  m_LabelTable:
    m_LabelNames:
    - default
    - Locale
    - Locale-en-GB
    - Locale-fr-CH
    - Locale-de-CH
  m_SchemaTemplates: []
  m_GroupTemplateObjects:
  - {fileID: 11400000, guid: a17c72fd3347348ddb6bf0b2fb69e29e, type: 2}
  m_InitializationObjects: []
  m_CertificateHandlerType:
    m_AssemblyName: 
    m_ClassName: 
  m_ActivePlayerDataBuilderIndex: 3
  m_DataBuilders:
  - {fileID: 11400000, guid: 3609abde7a0ea4c9d8efc4ce649fb0e9, type: 2}
  - {fileID: 11400000, guid: dd048c98ee5cd4863ac8dd6c40f83ccb, type: 2}
  - {fileID: 11400000, guid: 4c41fb4c0f93a4b7d89230f48671cf38, type: 2}
  - {fileID: 11400000, guid: 11dfb21020ede46c98905aee016be9cb, type: 2}
  m_ActiveProfileId: caccf6d221b9047a698e1e502f53c40d
  m_HostingServicesManager:
    m_HostingServiceInfos: []
    m_Settings: {fileID: 11400000}
    m_NextInstanceId: 0
    m_RegisteredServiceTypeRefs: []
